doctor@bolnica.com,doctor,doctor,1,Branislav,Lazarevic,+381641341808,2206969552015,1,hirurg,3
specijalista@bolnica.com,doktor,doktor,2,Kristijan,Lazic,+381641341808,2206969552015,2,opsti,4
lecimljude@bolnica.com,ris98,sifra,3,Kristijan,Savic,+381641341808,2206969552015,2,opsti,5
